module gitlab.com/illsurvive/cookiecatquotesbot

go 1.21.5

require (
	github.com/go-telegram-bot-api/telegram-bot-api v4.6.4+incompatible
	github.com/joho/godotenv v1.5.1
)

require github.com/technoweenie/multipartstreamer v1.0.1 // indirect
